{
    "index": {
        "download_fdroid": "Baixar F-Droid", 
        "gpg_signature": "Assinatura PGP", 
        "introduction": "F-Droid é um catálogo [instalável]((https://f-droid.org/FDroid.apk) de Softwares (aplicativo) Livres  para a plataforma Android. O aplicativo deixa muito fácil explorar, instalar e ficar de olho nas atualizações do seu dispositivo.", 
        "screenshot": "Captura de tela do aplicativo F-Droid para Android", 
        "title": "O que é F-Droid?"
    }, 
    "navigation": {
        "about": "Sobre", 
        "browse": "Navegar", 
        "contribute": "Contribua", 
        "documentation": "Documentos", 
        "forum": "Fórum", 
        "issues": "Problemas", 
        "news": "Notícias"
    }, 
    "package": {
        "license": "Licença", 
        "packages": "Pacotes", 
        "source_code": "Código Fonte"
    }, 
    "sidebars": {
        "donate": {
            "bank_transfer_name": "Nome", 
            "heading": "Fazer doação", 
            "powered_by_donations": "F-Droid é sustentada por suas doações!", 
            "via_bank_transfer": "Transferência bancária"
        }, 
        "last_updated": {
            "heading": "Última atualização"
        }, 
        "latest_packages": {
            "heading": "Aplicativos mais recentes"
        }, 
        "news": {
            "heading": "Novidades"
        }
    }
}